Random forest: a machine learning algorithm for weed research | Welcome to Open Weed Science
…
Data

The data used for this exercise is from a published manuscript by Striegel et al. 2020 investigating the influence of spray additives on spray solution pH. Run the following codes to load the data into R:

df_path <- getURL("https://raw.githubusercontent.com/openweedsci/data/master/posts/randomforest2.csv")

data <- read_csv(df_path) %>% 
  mutate_if(is.character, as.factor)

After running the codes above, the data should appear as data (you could have called it something else).

data

## # A tibble: 120 x 4
##       ph Rate  AMS   Glyphosate
##    <dbl> <fct> <fct> <fct>     
##  1  6.55 4x    no    no        
##  2  6.54 4x    no    no        
##  3  6.56 4x    no    no        
##  4  6.63 4x    no    no        
##  5  6.62 4x    no    no        
##  6  6.67 4x    no    no        
##  7  4.92 4x    no    yes       
##  8  4.93 4x    no    yes       
##  9  4.93 4x    no    yes       
## 10  4.93 4x    no    yes       
## # … with 110 more rows
…
## # A tibble: 2 x 3
##   .metric .estimator .estimate
##   <chr>   <chr>          <dbl>
## 1 rmse    standard       0.335
## 2 rsq     standard       0.823

final_res %>%
  collect_predictions() %>% 
  bind_cols(s1_test)

## New names:
## * ph -> ph...4
## * ph -> ph...5

## # A tibble: 28 x 8
##    id               .pred  .row ph...4 ph...5 Rate  AMS   Glyphosate
##    <chr>            <dbl> <int>  <dbl>  <dbl> <fct> <fct> <fct>     
##  1 train/test split  6.51     3   6.56   6.56 4x    no    no        
##  2 train/test split  5.20     9   4.93   4.93 4x    no    yes       
##  3 train/test split  5.20    16   4.96   4.96 4x    no    yes       
##  4 train/test split  6.51    23   6.5    6.5  4x    no    no        
##  5 train/test split  6.51    24   6.53   6.53 4x    no    no        
##  6 train/test split  6.36    25   6.73   6.73 4x    yes   no        
##  7 train/test split  6.36    28   6.8    6.8  4x    yes   no        
##  8 train/test split  6.36    30   6.77   6.77 4x    yes   no        
##  9 train/test split  5.29    32   5.03   5.03 4x    yes   yes       
## 10 train/test split  5.29    37   5.04   5.04 4x    yes   yes       
## # … with 18 more rows
…
