…
To select the columns that we’ll need, we use the ‘select’ function from dplyr. Once we have our two columns, we should adjust some details in them. The first one is to rename ‘Value’ to ‘area’ to be more intuitive. The second one is to change the county names from upper to lowercase using the ‘mutate_all’ function to match the ‘wisconsin’ data frame that have the county names in lowercase. Now, all we have to do is join the two data frames using the ‘left_join’ function also from dplyr, by ‘County’.

corn_data <- usda_corn %>% 
  select("County", "Value") %>%       #to select the columns that we need
  rename("area" = "Value") %>%        #to rename the Value column to area
  mutate_all(list (tolower)) %>%      #to change from UPPER to lowercase the county names
  left_join(wisconsin, by = "County") #to join both data frames using County as a reference

Now we have a single data frame (‘corn_data’) with the geographical information of the state of Wisconsin and the area planted with corn in 64 of its counties.

corn_data

## # A tibble: 1,089 x 7
##    County area   long   lat group order region   
##    <chr>  <chr> <dbl> <dbl> <dbl> <int> <chr>    
##  1 adams  27500 -89.8  43.6  2988 88960 wisconsin
##  2 adams  27500 -89.8  43.7  2988 88961 wisconsin
##  3 adams  27500 -89.8  43.7  2988 88962 wisconsin
##  4 adams  27500 -89.8  43.7  2988 88963 wisconsin
##  5 adams  27500 -89.8  43.7  2988 88964 wisconsin
##  6 adams  27500 -89.8  43.8  2988 88965 wisconsin
##  7 adams  27500 -89.8  43.8  2988 88966 wisconsin
##  8 adams  27500 -89.9  43.8  2988 88967 wisconsin
##  9 adams  27500 -89.9  43.8  2988 88968 wisconsin
## 10 adams  27500 -89.9  43.9  2988 88969 wisconsin
## # … with 1,079 more rows
…
