…
You can see that table is tidy and ready to be used as your needs (much better, yes?). If needed, an additional step is to make a single column combining all sites of action columns, here described as letters.

resistance_chart2 <- resistance_chart1 %>% 
  pivot_longer(cols = a:other, # select columns to pivot
               names_to = "soa", # new column name
               values_to = "resistant") # new values column name

resistance_chart2

## # A tibble: 639 x 5
##    number country   total soa   resistant
##     <int> <chr>     <int> <chr>     <int>
##  1      1 Argentina    27 a             3
##  2      1 Argentina    27 b             5
##  3      1 Argentina    27 c1            0
##  4      1 Argentina    27 c2            0
##  5      1 Argentina    27 d             0
##  6      1 Argentina    27 g            15
##  7      1 Argentina    27 k1            0
##  8      1 Argentina    27 o             4
##  9      1 Argentina    27 other         0
## 10      2 Australia   100 a            14
## # … with 629 more rows
…
Now, the function is done and we want to test it. Lets use id = 1 to see the output.

country_function(id = 1)

## # A tibble: 152 x 10
##    x     number species common_name country state_name first_year country_id
##    <chr>  <int> <chr>   <chr>       <chr>   <chr>           <int>      <int>
##  1 ""         1 Lolium… Rigid Ryeg… Austra… New South…       1985          1
##  2 ""         2 Avena … Sterile Oat Austra… New South…       1989          1
##  3 ""         3 Avena … Wild Oat    Austra… New South…       1991          1
##  4 ""         4 Cyperu… Smallflowe… Austra… New South…       1994          1
##  5 ""         5 Sagitt… California… Austra… New South…       1994          1
##  6 ""         6 Damaso… Starfruit   Austra… New South…       1994          1
##  7 ""         7 Sisymb… Oriental M… Austra… New South…       1994          1
##  8 ""         8 Sinapi… Wild Musta… Austra… New South…       1996          1
##  9 ""         9 Phalar… Hood Canar… Austra… New South…       1997          1
## 10 ""        10 Lolium… Rigid Ryeg… Austra… New South…       1997          1
## # … with 142 more rows, and 2 more variables: site_of_action <chr>,
## #   resist_id <int>
…
country

## # A tibble: 71 x 2
##    country_name    id
##    <chr>        <dbl>
##  1 "argentina"     48
##  2 "australia"      1
##  3 "austria"        2
##  4 "belgium "       3
##  5 "bolivia"        4
##  6 "brazil"         5
##  7 "bulgaria"       6
##  8 "canada"         7
##  9 "chile"          8
## 10 "china"          9
## # … with 61 more rows

Once you have the data set with country and id number, we can iterate with map function from purrr package.

resistance_data <- country %>% 
  arrange(country_name) %>% #arrange country in alphabetical order
  mutate(resistance_data = map(id, country_function)) # iterate function over id

# resistance data is in a list by each country
resistance_data

## # A tibble: 71 x 3
##    country_name    id resistance_data    
##    <chr>        <dbl> <list>             
##  1 "argentina"     48 <tibble [28 × 9]>  
##  2 "australia"      1 <tibble [152 × 10]>
##  3 "austria"        2 <tibble [4 × 9]>   
##  4 "belgium "       3 <tibble [21 × 9]>  
##  5 "bolivia"        4 <tibble [8 × 9]>   
##  6 "brazil"         5 <tibble [54 × 9]>  
##  7 "bulgaria"       6 <tibble [4 × 9]>   
##  8 "canada"         7 <tibble [118 × 10]>
##  9 "chile"          8 <tibble [19 × 9]>  
## 10 "china"          9 <tibble [44 × 9]>  
## # … with 61 more rows
…
