…
Next I will use functions to count words over the years, arrange it as descending, group_by year, rank top 100 words (row_number) and filter the top 100 words by each year.

pdf4 <- pdf3 %>% 
  count(year, word) %>% 
  arrange(year, -n) %>% 
  group_by(year) %>% 
  mutate(rank = row_number()) %>% 
  filter(rank <= 100)

Now I have the top 100 words by each year:

pdf4 %>% 
  slice_head(n = 10)

## # A tibble: 200 x 4
## # Groups:   year [20]
##     year word           n  rank
##    <int> <chr>      <int> <int>
##  1  2001 control      716     1
##  2  2001 weed         632     2
##  3  2001 glyphosate   475     3
##  4  2001 applied      427     4
##  5  2001 herbicide    369     5
##  6  2001 corn         358     6
##  7  2001 treatments   339     7
##  8  2001 soybean      257     8
##  9  2001 common       240     9
## 10  2001 yield        226    10
## # … with 190 more rows
In this analysis I am interested only on weeds present in the top 100 words in 2001 and 2020. Therefore, I am using if_else function to create new columns for highlighting selected weed species. You can change and select any word if want as I did it with herbicides in my poster at the 2020 NCWSS meeting.

pdf5 <- pdf4 %>% 
  mutate(highlight = if_else(word %in% c("amaranth", "palmer", 
                                         "kochia", "horseweed", 
                                         "grass", "nightshade", 
                                         "waterhemp", "velvetleaf", 
                                         "ragweed", "sunflower",
                                         "foxtail"), TRUE, FALSE),
       variable_col = if_else(highlight == TRUE, word, "NA"))

pdf5 %>% 
  slice_head(n = 5)

## # A tibble: 100 x 6
## # Groups:   year [20]
##     year word           n  rank highlight variable_col
##    <int> <chr>      <int> <int> <lgl>     <chr>       
##  1  2001 control      716     1 FALSE     NA          
##  2  2001 weed         632     2 FALSE     NA          
##  3  2001 glyphosate   475     3 FALSE     NA          
##  4  2001 applied      427     4 FALSE     NA          
##  5  2001 herbicide    369     5 FALSE     NA          
##  6  2002 weed         834     1 FALSE     NA          
##  7  2002 control      658     2 FALSE     NA          
##  8  2002 glyphosate   624     3 FALSE     NA          
##  9  2002 corn         445     4 FALSE     NA          
## 10  2002 applied      330     5 FALSE     NA          
## # … with 90 more rows
…
