…
The data used for the exercise is from a published manuscript of Commelina benghalensis and Richardia brasiliensis competition in corn.

Run the following codes below to load the data into R:

df_path <- getURL("https://raw.githubusercontent.com/openweedsci/data/master/posts/additive.csv")

DMT <- read_csv(df_path) 

After running the codes above, the data should appear as DMT (“DMT” was chosen as the name of the dataset; you could have called it “data” or something else). In the spreadsheet, weeds are named 1 (C. benghalensis) and 2 (R. brasiliensis), and desity of weeds varies from 0 to 4 plants per plot, and response variable is yl (% yield loss).

DMT

## # A tibble: 40 x 7
##    block treat densitycrop densityweed biomass     yl  weed
##    <dbl> <dbl>       <dbl>       <dbl>   <dbl>  <dbl> <dbl>
##  1     1     1           1           0   59.4  -16.4      1
##  2     2     1           1           0   34.4   32.7      1
##  3     3     1           1           0   56.7  -11        1
##  4     4     1           1           0   53.8   -5.28     1
##  5     1     2           1           1   12.7   75.1      1
##  6     2     2           1           1   14.0   72.7      1
##  7     3     2           1           1   12.4   75.7      1
##  8     4     2           1           1   23.2   54.6      1
##  9     1     3           1           2    4.55  91.1      1
## 10     2     3           1           2    3.91  92.3      1
## # … with 30 more rows
…
